{
  "id": "remotejob/realworldnlpbook",
  "id_no": 5183826,
  "title": "realworldnlpbook",
  "code_file": "kagglerun.py",
  "language": "python",
  "kernel_type": "script",
  "is_private": true,
  "enable_gpu": true,
  "enable_internet": true,
  "keywords": [],
  "dataset_sources": [
    "remotejob/realworldnlpbookdata"
  ],
  "kernel_sources": [],
  "competition_sources": []
}